{"page":1,"per_page":20,"photos":[{"id":25746404,"width":4160,"height":6240,"url":"https://www.pexels.com/photo/a-bicycle-parked-next-to-a-wooden-fence-25746404/","photographer":"Mete Kaan Özdilek","photographer_url":"https://www.pexels.com/@metekaan","photographer_id":1340592772,"avg_color":"#BBA99B","src":{"original":"https://images.pexels.com/photos/25746404/pexels-photo-25746404.jpeg","large2x":"https://images.pexels.com/photos/25746404/pexels-photo-25746404.jpeg?auto=compress\u0026cs=tinysrgb\u0026dpr=2\u0026h=650\u0026w=940","large":"https://images.pexels.com/photos/25746404/pexels-photo-25746404.jpeg?auto=compress\u0026cs=tinysrgb\u0026h=650\u0026w=940","medium":"https://images.pexels.com/photos/25746404/pexels-photo-25746404.jpeg?auto=compress\u0026cs=tinysrgb\u0026h=350","small":"https://images.pexels.com/photos/25746404/pexels-photo-25746404.jpeg?auto=compress\u0026cs=tinysrgb\u0026h=130","portrait":"https://images.pexels.com/photos/25746404/pexels-photo-25746404.jpeg?auto=compress\u0026cs=tinysrgb\u0026fit=crop\u0026h=1200\u0026w=800","landscape":"https://images.pexels.com/photos/25746404/pexels-photo-25746404.jpeg?auto=compress\u0026cs=tinysrgb\u0026fit=crop\u0026h=627\u0026w=1200","tiny":"https://images.pexels.com/photos/25746404/pexels-photo-25746404.jpeg?auto=compress\u0026cs=tinysrgb\u0026dpr=1\u0026fit=crop\u0026h=200\u0026w=280"},"liked":false,"alt":"A blue bicycle leaning against a wooden fence"},{"id":26201686,"width":3742,"height":5557,"url":"https://www.pexels.com/photo/a-woman-in-a-wedding-dress-laying-on-the-rocks-26201686/","photographer":"Anastasia Nagibina","photographer_url":"https://www.pexels.com/@anastasia-nagibina-1116204043","photographer_id":1116204043,"avg_color":"#434A54","src":{"original":"https://images.pexels.com/photos/26201686/pexels-photo-26201686.jpeg","large2x":"https://images.pexels.com/photos/26201686/pexels-photo-26201686.jpeg?auto=compress\u0026cs=tinysrgb\u0026dpr=2\u0026h=650\u0026w=940","large":"https://images.pexels.com/photos/26201686/pexels-photo-26201686.jpeg?auto=compress\u0026cs=tinysrgb\u0026h=650\u0026w=940","medium":"https://images.pexels.com/photos/26201686/pexels-photo-26201686.jpeg?auto=compress\u0026cs=tinysrgb\u0026h=350","small":"https://images.pexels.com/photos/26201686/pexels-photo-26201686.jpeg?auto=compress\u0026cs=tinysrgb\u0026h=130","portrait":"https://images.pexels.com/photos/26201686/pexels-photo-26201686.jpeg?auto=compress\u0026cs=tinysrgb\u0026fit=crop\u0026h=1200\u0026w=800","landscape":"https://images.pexels.com/photos/26201686/pexels-photo-26201686.jpeg?auto=compress\u0026cs=tinysrgb\u0026fit=crop\u0026h=627\u0026w=1200","tiny":"https://images.pexels.com/photos/26201686/pexels-photo-26201686.jpeg?auto=compress\u0026cs=tinysrgb\u0026dpr=1\u0026fit=crop\u0026h=200\u0026w=280"},"liked":false,"alt":"A woman in a wedding dress laying on the rocks"},{"id":26172901,"width":3035,"height":4553,"url":"https://www.pexels.com/photo/a-lizard-is-peeking-out-of-a-crack-in-the-rock-26172901/","photographer":"Alex Dos Santos","photographer_url":"https://www.pexels.com/@alex-dos-santos-305643819","photographer_id":305643819,"avg_color":"#7B7B7B","src":{"original":"https://images.pexels.com/photos/26172901/pexels-photo-26172901.jpeg","large2x":"https://images.pexels.com/photos/26172901/pexels-photo-26172901.jpeg?auto=compress\u0026cs=tinysrgb\u0026dpr=2\u0026h=650\u0026w=940","large":"https://images.pexels.com/photos/26172901/pexels-photo-26172901.jpeg?auto=compress\u0026cs=tinysrgb\u0026h=650\u0026w=940","medium":"https://images.pexels.com/photos/26172901/pexels-photo-26172901.jpeg?auto=compress\u0026cs=tinysrgb\u0026h=350","small":"https://images.pexels.com/photos/26172901/pexels-photo-26172901.jpeg?auto=compress\u0026cs=tinysrgb\u0026h=130","portrait":"https://images.pexels.com/photos/26172901/pexels-photo-26172901.jpeg?auto=compress\u0026cs=tinysrgb\u0026fit=crop\u0026h=1200\u0026w=800","landscape":"https://images.pexels.com/photos/26172901/pexels-photo-26172901.jpeg?auto=compress\u0026cs=tinysrgb\u0026fit=crop\u0026h=627\u0026w=1200","tiny":"https://images.pexels.com/photos/26172901/pexels-photo-26172901.jpeg?auto=compress\u0026cs=tinysrgb\u0026dpr=1\u0026fit=crop\u0026h=200\u0026w=280"},"liked":false,"alt":"Free stock photo of animal, black and white, black and white background"},{"id":25682344,"width":5355,"height":3570,"url":"https://www.pexels.com/photo/woman-walking-downstairs-near-colorful-wall-25682344/","photographer":"Diego Marcel","photographer_url":"https://www.pexels.com/@diego-marcel-927914237","photographer_id":927914237,"avg_color":"#9D7A44","src":{"original":"https://images.pexels.com/photos/25682344/pexels-photo-25682344.jpeg","large2x":"https://images.pexels.com/photos/25682344/pexels-photo-25682344.jpeg?auto=compress\u0026cs=tinysrgb\u0026dpr=2\u0026h=650\u0026w=940","large":"https://images.pexels.com/photos/25682344/pexels-photo-25682344.jpeg?auto=compress\u0026cs=tinysrgb\u0026h=650\u0026w=940","medium":"https://images.pexels.com/photos/25682344/pexels-photo-25682344.jpeg?auto=compress\u0026cs=tinysrgb\u0026h=350","small":"https://images.pexels.com/photos/25682344/pexels-photo-25682344.jpeg?auto=compress\u0026cs=tinysrgb\u0026h=130","portrait":"https://images.pexels.com/photos/25682344/pexels-photo-25682344.jpeg?auto=compress\u0026cs=tinysrgb\u0026fit=crop\u0026h=1200\u0026w=800","landscape":"https://images.pexels.com/photos/25682344/pexels-photo-25682344.jpeg?auto=compress\u0026cs=tinysrgb\u0026fit=crop\u0026h=627\u0026w=1200","tiny":"https://images.pexels.com/photos/25682344/pexels-photo-25682344.jpeg?auto=compress\u0026cs=tinysrgb\u0026dpr=1\u0026fit=crop\u0026h=200\u0026w=280"},"liked":false,"alt":"Colors"},{"id":25665222,"width":4672,"height":6686,"url":"https://www.pexels.com/photo/man-leaning-against-the-wall-25665222/","photographer":"Ayoub Moukhliss","photographer_url":"https://www.pexels.com/@ayoub-moukhliss-1262835","photographer_id":1262835,"avg_color":"#A59D9B","src":{"original":"https://images.pexels.com/photos/25665222/pexels-photo-25665222.jpeg","large2x":"https://images.pexels.com/photos/25665222/pexels-photo-25665222.jpeg?auto=compress\u0026cs=tinysrgb\u0026dpr=2\u0026h=650\u0026w=940","large":"https://images.pexels.com/photos/25665222/pexels-photo-25665222.jpeg?auto=compress\u0026cs=tinysrgb\u0026h=650\u0026w=940","medium":"https://images.pexels.com/photos/25665222/pexels-photo-25665222.jpeg?auto=compress\u0026cs=tinysrgb\u0026h=350","small":"https://images.pexels.com/photos/25665222/pexels-photo-25665222.jpeg?auto=compress\u0026cs=tinysrgb\u0026h=130","portrait":"https://images.pexels.com/photos/25665222/pexels-photo-25665222.jpeg?auto=compress\u0026cs=tinysrgb\u0026fit=crop\u0026h=1200\u0026w=800","landscape":"https://images.pexels.com/photos/25665222/pexels-photo-25665222.jpeg?auto=compress\u0026cs=tinysrgb\u0026fit=crop\u0026h=627\u0026w=1200","tiny":"https://images.pexels.com/photos/25665222/pexels-photo-25665222.jpeg?auto=compress\u0026cs=tinysrgb\u0026dpr=1\u0026fit=crop\u0026h=200\u0026w=280"},"liked":false,"alt":"A man in white sneakers and a jacket leaning against a wall"},{"id":25665160,"width":4989,"height":3326,"url":"https://www.pexels.com/photo/camargure-horse-walks-a-lonely-road-25665160/","photographer":"Justin Flynn","photographer_url":"https://www.pexels.com/@justin-flynn-1338120259","photographer_id":1338120259,"avg_color":"#8E8E90","src":{"original":"https://images.pexels.com/photos/25665160/pexels-photo-25665160.jpeg","large2x":"https://images.pexels.com/photos/25665160/pexels-photo-25665160.jpeg?auto=compress\u0026cs=tinysrgb\u0026dpr=2\u0026h=650\u0026w=940","large":"https://images.pexels.com/photos/25665160/pexels-photo-25665160.jpeg?auto=compress\u0026cs=tinysrgb\u0026h=650\u0026w=940","medium":"https://images.pexels.com/photos/25665160/pexels-photo-25665160.jpeg?auto=compress\u0026cs=tinysrgb\u0026h=350","small":"https://images.pexels.com/photos/25665160/pexels-photo-25665160.jpeg?auto=compress\u0026cs=tinysrgb\u0026h=130","portrait":"https://images.pexels.com/photos/25665160/pexels-photo-25665160.jpeg?auto=compress\u0026cs=tinysrgb\u0026fit=crop\u0026h=1200\u0026w=800","landscape":"https://images.pexels.com/photos/25665160/pexels-photo-25665160.jpeg?auto=compress\u0026cs=tinysrgb\u0026fit=crop\u0026h=627\u0026w=1200","tiny":"https://images.pexels.com/photos/25665160/pexels-photo-25665160.jpeg?auto=compress\u0026cs=tinysrgb\u0026dpr=1\u0026fit=crop\u0026h=200\u0026w=280"},"liked":false,"alt":"A black and white photo of a horse walking down a dirt road"},{"id":25643510,"width":2000,"height":3016,"url":"https://www.pexels.com/photo/buildings-around-empty-street-in-city-25643510/","photographer":"Anna Holodna","photographer_url":"https://www.pexels.com/@holodna","photographer_id":237271098,"avg_color":"#504D3C","src":{"original":"https://images.pexels.com/photos/25643510/pexels-photo-25643510.jpeg","large2x":"https://images.pexels.com/photos/25643510/pexels-photo-25643510.jpeg?auto=compress\u0026cs=tinysrgb\u0026dpr=2\u0026h=650\u0026w=940","large":"https://images.pexels.com/photos/25643510/pexels-photo-25643510.jpeg?auto=compress\u0026cs=tinysrgb\u0026h=650\u0026w=940","medium":"https://images.pexels.com/photos/25643510/pexels-photo-25643510.jpeg?auto=compress\u0026cs=tinysrgb\u0026h=350","small":"https://images.pexels.com/photos/25643510/pexels-photo-25643510.jpeg?auto=compress\u0026cs=tinysrgb\u0026h=130","portrait":"https://images.pexels.com/photos/25643510/pexels-photo-25643510.jpeg?auto=compress\u0026cs=tinysrgb\u0026fit=crop\u0026h=1200\u0026w=800","landscape":"https://images.pexels.com/photos/25643510/pexels-photo-25643510.jpeg?auto=compress\u0026cs=tinysrgb\u0026fit=crop\u0026h=627\u0026w=1200","tiny":"https://images.pexels.com/photos/25643510/pexels-photo-25643510.jpeg?auto=compress\u0026cs=tinysrgb\u0026dpr=1\u0026fit=crop\u0026h=200\u0026w=280"},"liked":false,"alt":"Free stock photo of 35 mm, analog, analog photography"},{"id":25643195,"width":4000,"height":6000,"url":"https://www.pexels.com/photo/woman-behind-man-25643195/","photographer":"Seljan  Salimova","photographer_url":"https://www.pexels.com/@seljansalim","photographer_id":472742969,"avg_color":"#6F6F6F","src":{"original":"https://images.pexels.com/photos/25643195/pexels-photo-25643195.jpeg","large2x":"https://images.pexels.com/photos/25643195/pexels-photo-25643195.jpeg?auto=compress\u0026cs=tinysrgb\u0026dpr=2\u0026h=650\u0026w=940","large":"https://images.pexels.com/photos/25643195/pexels-photo-25643195.jpeg?auto=compress\u0026cs=tinysrgb\u0026h=650\u0026w=940","medium":"https://images.pexels.com/photos/25643195/pexels-photo-25643195.jpeg?auto=compress\u0026cs=tinysrgb\u0026h=350","small":"https://images.pexels.com/photos/25643195/pexels-photo-25643195.jpeg?auto=compress\u0026cs=tinysrgb\u0026h=130","portrait":"https://images.pexels.com/photos/25643195/pexels-photo-25643195.jpeg?auto=compress\u0026cs=tinysrgb\u0026fit=crop\u0026h=1200\u0026w=800","landscape":"https://images.pexels.com/photos/25643195/pexels-photo-25643195.jpeg?auto=compress\u0026cs=tinysrgb\u0026fit=crop\u0026h=627\u0026w=1200","tiny":"https://images.pexels.com/photos/25643195/pexels-photo-25643195.jpeg?auto=compress\u0026cs=tinysrgb\u0026dpr=1\u0026fit=crop\u0026h=200\u0026w=280"},"liked":false,"alt":"Free stock photo of outdoor photoshoot"},{"id":25637494,"width":3024,"height":4032,"url":"https://www.pexels.com/photo/bars-over-stairs-25637494/","photographer":"Rose Rosen","photographer_url":"https://www.pexels.com/@rose-rosen-3423077","photographer_id":3423077,"avg_color":"#6A6A62","src":{"original":"https://images.pexels.com/photos/25637494/pexels-photo-25637494.jpeg","large2x":"https://images.pexels.com/photos/25637494/pexels-photo-25637494.jpeg?auto=compress\u0026cs=tinysrgb\u0026dpr=2\u0026h=650\u0026w=940","large":"https://images.pexels.com/photos/25637494/pexels-photo-25637494.jpeg?auto=compress\u0026cs=tinysrgb\u0026h=650\u0026w=940","medium":"https://images.pexels.com/photos/25637494/pexels-photo-25637494.jpeg?auto=compress\u0026cs=tinysrgb\u0026h=350","small":"https://images.pexels.com/photos/25637494/pexels-photo-25637494.jpeg?auto=compress\u0026cs=tinysrgb\u0026h=130","portrait":"https://images.pexels.com/photos/25637494/pexels-photo-25637494.jpeg?auto=compress\u0026cs=tinysrgb\u0026fit=crop\u0026h=1200\u0026w=800","landscape":"https://images.pexels.com/photos/25637494/pexels-photo-25637494.jpeg?auto=compress\u0026cs=tinysrgb\u0026fit=crop\u0026h=627\u0026w=1200","tiny":"https://images.pexels.com/photos/25637494/pexels-photo-25637494.jpeg?auto=compress\u0026cs=tinysrgb\u0026dpr=1\u0026fit=crop\u0026h=200\u0026w=280"},"liked":false,"alt":"Bars over Stairs"},{"id":26082794,"width":4269,"height":7000,"url":"https://www.pexels.com/photo/antalya-patara-26082794/","photographer":"Furkan Elveren","photographer_url":"https://www.pexels.com/@furkanelveren","photographer_id":346903906,"avg_color":"#856C65","src":{"original":"https://images.pexels.com/photos/26082794/pexels-photo-26082794.jpeg","large2x":"https://images.pexels.com/photos/26082794/pexels-photo-26082794.jpeg?auto=compress\u0026cs=tinysrgb\u0026dpr=2\u0026h=650\u0026w=940","large":"https://images.pexels.com/photos/26082794/pexels-photo-26082794.jpeg?auto=compress\u0026cs=tinysrgb\u0026h=650\u0026w=940","medium":"https://images.pexels.com/photos/26082794/pexels-photo-26082794.jpeg?auto=compress\u0026cs=tinysrgb\u0026h=350","small":"https://images.pexels.com/photos/26082794/pexels-photo-26082794.jpeg?auto=compress\u0026cs=tinysrgb\u0026h=130","portrait":"https://images.pexels.com/photos/26082794/pexels-photo-26082794.jpeg?auto=compress\u0026cs=tinysrgb\u0026fit=crop\u0026h=1200\u0026w=800","landscape":"https://images.pexels.com/photos/26082794/pexels-photo-26082794.jpeg?auto=compress\u0026cs=tinysrgb\u0026fit=crop\u0026h=627\u0026w=1200","tiny":"https://images.pexels.com/photos/26082794/pexels-photo-26082794.jpeg?auto=compress\u0026cs=tinysrgb\u0026dpr=1\u0026fit=crop\u0026h=200\u0026w=280"},"liked":false,"alt":"Antalya / Patara"},{"id":26052359,"width":4284,"height":5712,"url":"https://www.pexels.com/photo/a-white-bed-with-a-white-pillow-and-flowers-26052359/","photographer":"Aljona Ovtšinnikova","photographer_url":"https://www.pexels.com/@aljona-ovtsinnikova-121486965","photographer_id":121486965,"avg_color":"#929290","src":{"original":"https://images.pexels.com/photos/26052359/pexels-photo-26052359.jpeg","large2x":"https://images.pexels.com/photos/26052359/pexels-photo-26052359.jpeg?auto=compress\u0026cs=tinysrgb\u0026dpr=2\u0026h=650\u0026w=940","large":"https://images.pexels.com/photos/26052359/pexels-photo-26052359.jpeg?auto=compress\u0026cs=tinysrgb\u0026h=650\u0026w=940","medium":"https://images.pexels.com/photos/26052359/pexels-photo-26052359.jpeg?auto=compress\u0026cs=tinysrgb\u0026h=350","small":"https://images.pexels.com/photos/26052359/pexels-photo-26052359.jpeg?auto=compress\u0026cs=tinysrgb\u0026h=130","portrait":"https://images.pexels.com/photos/26052359/pexels-photo-26052359.jpeg?auto=compress\u0026cs=tinysrgb\u0026fit=crop\u0026h=1200\u0026w=800","landscape":"https://images.pexels.com/photos/26052359/pexels-photo-26052359.jpeg?auto=compress\u0026cs=tinysrgb\u0026fit=crop\u0026h=627\u0026w=1200","tiny":"https://images.pexels.com/photos/26052359/pexels-photo-26052359.jpeg?auto=compress\u0026cs=tinysrgb\u0026dpr=1\u0026fit=crop\u0026h=200\u0026w=280"},"liked":false,"alt":"A white bed with a white pillow and flowers"},{"id":25972583,"width":2896,"height":4344,"url":"https://www.pexels.com/photo/leo_visions_-ig-25972583/","photographer":"Stephen Leonardi","photographer_url":"https://www.pexels.com/@stephen-leonardi-587681991","photographer_id":587681991,"avg_color":"#7B6C69","src":{"original":"https://images.pexels.com/photos/25972583/pexels-photo-25972583.jpeg","large2x":"https://images.pexels.com/photos/25972583/pexels-photo-25972583.jpeg?auto=compress\u0026cs=tinysrgb\u0026dpr=2\u0026h=650\u0026w=940","large":"https://images.pexels.com/photos/25972583/pexels-photo-25972583.jpeg?auto=compress\u0026cs=tinysrgb\u0026h=650\u0026w=940","medium":"https://images.pexels.com/photos/25972583/pexels-photo-25972583.jpeg?auto=compress\u0026cs=tinysrgb\u0026h=350","small":"https://images.pexels.com/photos/25972583/pexels-photo-25972583.jpeg?auto=compress\u0026cs=tinysrgb\u0026h=130","portrait":"https://images.pexels.com/photos/25972583/pexels-photo-25972583.jpeg?auto=compress\u0026cs=tinysrgb\u0026fit=crop\u0026h=1200\u0026w=800","landscape":"https://images.pexels.com/photos/25972583/pexels-photo-25972583.jpeg?auto=compress\u0026cs=tinysrgb\u0026fit=crop\u0026h=627\u0026w=1200","tiny":"https://images.pexels.com/photos/25972583/pexels-photo-25972583.jpeg?auto=compress\u0026cs=tinysrgb\u0026dpr=1\u0026fit=crop\u0026h=200\u0026w=280"},"liked":false,"alt":"Leo_visions_   @ig"},{"id":25792837,"width":3000,"height":2834,"url":"https://www.pexels.com/photo/an-old-black-and-white-photo-of-a-woman-standing-next-to-a-car-25792837/","photographer":"Lisa Fotios","photographer_url":"https://www.pexels.com/@fotios-photos","photographer_id":26735,"avg_color":"#737373","src":{"original":"https://images.pexels.com/photos/25792837/pexels-photo-25792837.jpeg","large2x":"https://images.pexels.com/photos/25792837/pexels-photo-25792837.jpeg?auto=compress\u0026cs=tinysrgb\u0026dpr=2\u0026h=650\u0026w=940","large":"https://images.pexels.com/photos/25792837/pexels-photo-25792837.jpeg?auto=compress\u0026cs=tinysrgb\u0026h=650\u0026w=940","medium":"https://images.pexels.com/photos/25792837/pexels-photo-25792837.jpeg?auto=compress\u0026cs=tinysrgb\u0026h=350","small":"https://images.pexels.com/photos/25792837/pexels-photo-25792837.jpeg?auto=compress\u0026cs=tinysrgb\u0026h=130","portrait":"https://images.pexels.com/photos/25792837/pexels-photo-25792837.jpeg?auto=compress\u0026cs=tinysrgb\u0026fit=crop\u0026h=1200\u0026w=800","landscape":"https://images.pexels.com/photos/25792837/pexels-photo-25792837.jpeg?auto=compress\u0026cs=tinysrgb\u0026fit=crop\u0026h=627\u0026w=1200","tiny":"https://images.pexels.com/photos/25792837/pexels-photo-25792837.jpeg?auto=compress\u0026cs=tinysrgb\u0026dpr=1\u0026fit=crop\u0026h=200\u0026w=280"},"liked":false,"alt":""},{"id":25391643,"width":4160,"height":6240,"url":"https://www.pexels.com/photo/fruit-lemonade-with-ice-25391643/","photographer":"Zehra K.","photographer_url":"https://www.pexels.com/@zehra-k-710717493","photographer_id":710717493,"avg_color":"#67645D","src":{"original":"https://images.pexels.com/photos/25391643/pexels-photo-25391643.jpeg","large2x":"https://images.pexels.com/photos/25391643/pexels-photo-25391643.jpeg?auto=compress\u0026cs=tinysrgb\u0026dpr=2\u0026h=650\u0026w=940","large":"https://images.pexels.com/photos/25391643/pexels-photo-25391643.jpeg?auto=compress\u0026cs=tinysrgb\u0026h=650\u0026w=940","medium":"https://images.pexels.com/photos/25391643/pexels-photo-25391643.jpeg?auto=compress\u0026cs=tinysrgb\u0026h=350","small":"https://images.pexels.com/photos/25391643/pexels-photo-25391643.jpeg?auto=compress\u0026cs=tinysrgb\u0026h=130","portrait":"https://images.pexels.com/photos/25391643/pexels-photo-25391643.jpeg?auto=compress\u0026cs=tinysrgb\u0026fit=crop\u0026h=1200\u0026w=800","landscape":"https://images.pexels.com/photos/25391643/pexels-photo-25391643.jpeg?auto=compress\u0026cs=tinysrgb\u0026fit=crop\u0026h=627\u0026w=1200","tiny":"https://images.pexels.com/photos/25391643/pexels-photo-25391643.jpeg?auto=compress\u0026cs=tinysrgb\u0026dpr=1\u0026fit=crop\u0026h=200\u0026w=280"},"liked":false,"alt":"A drink with an orange slice and basil leaves"},{"id":25430669,"width":3380,"height":5071,"url":"https://www.pexels.com/photo/welcome-sign-in-las-vegas-25430669/","photographer":"Moritz Feldmann","photographer_url":"https://www.pexels.com/@moritz-feldmann-3362914","photographer_id":3362914,"avg_color":"#838174","src":{"original":"https://images.pexels.com/photos/25430669/pexels-photo-25430669.jpeg","large2x":"https://images.pexels.com/photos/25430669/pexels-photo-25430669.jpeg?auto=compress\u0026cs=tinysrgb\u0026dpr=2\u0026h=650\u0026w=940","large":"https://images.pexels.com/photos/25430669/pexels-photo-25430669.jpeg?auto=compress\u0026cs=tinysrgb\u0026h=650\u0026w=940","medium":"https://images.pexels.com/photos/25430669/pexels-photo-25430669.jpeg?auto=compress\u0026cs=tinysrgb\u0026h=350","small":"https://images.pexels.com/photos/25430669/pexels-photo-25430669.jpeg?auto=compress\u0026cs=tinysrgb\u0026h=130","portrait":"https://images.pexels.com/photos/25430669/pexels-photo-25430669.jpeg?auto=compress\u0026cs=tinysrgb\u0026fit=crop\u0026h=1200\u0026w=800","landscape":"https://images.pexels.com/photos/25430669/pexels-photo-25430669.jpeg?auto=compress\u0026cs=tinysrgb\u0026fit=crop\u0026h=627\u0026w=1200","tiny":"https://images.pexels.com/photos/25430669/pexels-photo-25430669.jpeg?auto=compress\u0026cs=tinysrgb\u0026dpr=1\u0026fit=crop\u0026h=200\u0026w=280"},"liked":false,"alt":"las Vegas"},{"id":25489348,"width":4303,"height":6455,"url":"https://www.pexels.com/photo/plants-over-table-and-chairs-on-terrace-25489348/","photographer":"Bruno Cervera","photographer_url":"https://www.pexels.com/@brunocervera","photographer_id":21603,"avg_color":"#6E6D4E","src":{"original":"https://images.pexels.com/photos/25489348/pexels-photo-25489348.jpeg","large2x":"https://images.pexels.com/photos/25489348/pexels-photo-25489348.jpeg?auto=compress\u0026cs=tinysrgb\u0026dpr=2\u0026h=650\u0026w=940","large":"https://images.pexels.com/photos/25489348/pexels-photo-25489348.jpeg?auto=compress\u0026cs=tinysrgb\u0026h=650\u0026w=940","medium":"https://images.pexels.com/photos/25489348/pexels-photo-25489348.jpeg?auto=compress\u0026cs=tinysrgb\u0026h=350","small":"https://images.pexels.com/photos/25489348/pexels-photo-25489348.jpeg?auto=compress\u0026cs=tinysrgb\u0026h=130","portrait":"https://images.pexels.com/photos/25489348/pexels-photo-25489348.jpeg?auto=compress\u0026cs=tinysrgb\u0026fit=crop\u0026h=1200\u0026w=800","landscape":"https://images.pexels.com/photos/25489348/pexels-photo-25489348.jpeg?auto=compress\u0026cs=tinysrgb\u0026fit=crop\u0026h=627\u0026w=1200","tiny":"https://images.pexels.com/photos/25489348/pexels-photo-25489348.jpeg?auto=compress\u0026cs=tinysrgb\u0026dpr=1\u0026fit=crop\u0026h=200\u0026w=280"},"liked":false,"alt":"A patio with a table and chairs and plants"},{"id":25542630,"width":3840,"height":5760,"url":"https://www.pexels.com/photo/woman-in-white-dress-sitting-and-reading-book-in-window-25542630/","photographer":"Letícia Alvares","photographer_url":"https://www.pexels.com/@leticia-alvares-1805702","photographer_id":1805702,"avg_color":"#A8968C","src":{"original":"https://images.pexels.com/photos/25542630/pexels-photo-25542630.jpeg","large2x":"https://images.pexels.com/photos/25542630/pexels-photo-25542630.jpeg?auto=compress\u0026cs=tinysrgb\u0026dpr=2\u0026h=650\u0026w=940","large":"https://images.pexels.com/photos/25542630/pexels-photo-25542630.jpeg?auto=compress\u0026cs=tinysrgb\u0026h=650\u0026w=940","medium":"https://images.pexels.com/photos/25542630/pexels-photo-25542630.jpeg?auto=compress\u0026cs=tinysrgb\u0026h=350","small":"https://images.pexels.com/photos/25542630/pexels-photo-25542630.jpeg?auto=compress\u0026cs=tinysrgb\u0026h=130","portrait":"https://images.pexels.com/photos/25542630/pexels-photo-25542630.jpeg?auto=compress\u0026cs=tinysrgb\u0026fit=crop\u0026h=1200\u0026w=800","landscape":"https://images.pexels.com/photos/25542630/pexels-photo-25542630.jpeg?auto=compress\u0026cs=tinysrgb\u0026fit=crop\u0026h=627\u0026w=1200","tiny":"https://images.pexels.com/photos/25542630/pexels-photo-25542630.jpeg?auto=compress\u0026cs=tinysrgb\u0026dpr=1\u0026fit=crop\u0026h=200\u0026w=280"},"liked":false,"alt":"A woman reading a book while sitting on a window sill"},{"id":25477056,"width":4000,"height":6000,"url":"https://www.pexels.com/photo/snow-leopard-lying-down-25477056/","photographer":"Sebastian Luna","photographer_url":"https://www.pexels.com/@sebastian-luna-736234668","photographer_id":736234668,"avg_color":"#343434","src":{"original":"https://images.pexels.com/photos/25477056/pexels-photo-25477056.jpeg","large2x":"https://images.pexels.com/photos/25477056/pexels-photo-25477056.jpeg?auto=compress\u0026cs=tinysrgb\u0026dpr=2\u0026h=650\u0026w=940","large":"https://images.pexels.com/photos/25477056/pexels-photo-25477056.jpeg?auto=compress\u0026cs=tinysrgb\u0026h=650\u0026w=940","medium":"https://images.pexels.com/photos/25477056/pexels-photo-25477056.jpeg?auto=compress\u0026cs=tinysrgb\u0026h=350","small":"https://images.pexels.com/photos/25477056/pexels-photo-25477056.jpeg?auto=compress\u0026cs=tinysrgb\u0026h=130","portrait":"https://images.pexels.com/photos/25477056/pexels-photo-25477056.jpeg?auto=compress\u0026cs=tinysrgb\u0026fit=crop\u0026h=1200\u0026w=800","landscape":"https://images.pexels.com/photos/25477056/pexels-photo-25477056.jpeg?auto=compress\u0026cs=tinysrgb\u0026fit=crop\u0026h=627\u0026w=1200","tiny":"https://images.pexels.com/photos/25477056/pexels-photo-25477056.jpeg?auto=compress\u0026cs=tinysrgb\u0026dpr=1\u0026fit=crop\u0026h=200\u0026w=280"},"liked":false,"alt":""},{"id":25381433,"width":6805,"height":8093,"url":"https://www.pexels.com/photo/tree-under-clear-sky-25381433/","photographer":"tarasov_film_ph","photographer_url":"https://www.pexels.com/@tarasov_film_ph-162805844","photographer_id":162805844,"avg_color":"#717479","src":{"original":"https://images.pexels.com/photos/25381433/pexels-photo-25381433.jpeg","large2x":"https://images.pexels.com/photos/25381433/pexels-photo-25381433.jpeg?auto=compress\u0026cs=tinysrgb\u0026dpr=2\u0026h=650\u0026w=940","large":"https://images.pexels.com/photos/25381433/pexels-photo-25381433.jpeg?auto=compress\u0026cs=tinysrgb\u0026h=650\u0026w=940","medium":"https://images.pexels.com/photos/25381433/pexels-photo-25381433.jpeg?auto=compress\u0026cs=tinysrgb\u0026h=350","small":"https://images.pexels.com/photos/25381433/pexels-photo-25381433.jpeg?auto=compress\u0026cs=tinysrgb\u0026h=130","portrait":"https://images.pexels.com/photos/25381433/pexels-photo-25381433.jpeg?auto=compress\u0026cs=tinysrgb\u0026fit=crop\u0026h=1200\u0026w=800","landscape":"https://images.pexels.com/photos/25381433/pexels-photo-25381433.jpeg?auto=compress\u0026cs=tinysrgb\u0026fit=crop\u0026h=627\u0026w=1200","tiny":"https://images.pexels.com/photos/25381433/pexels-photo-25381433.jpeg?auto=compress\u0026cs=tinysrgb\u0026dpr=1\u0026fit=crop\u0026h=200\u0026w=280"},"liked":false,"alt":"A photograph of a tall pine tree"},{"id":25956369,"width":6000,"height":4000,"url":"https://www.pexels.com/photo/blueberries-are-a-great-source-of-antioxidants-25956369/","photographer":"Ylanite Koppens","photographer_url":"https://www.pexels.com/@nietjuh","photographer_id":196863,"avg_color":"#444F61","src":{"original":"https://images.pexels.com/photos/25956369/pexels-photo-25956369.jpeg","large2x":"https://images.pexels.com/photos/25956369/pexels-photo-25956369.jpeg?auto=compress\u0026cs=tinysrgb\u0026dpr=2\u0026h=650\u0026w=940","large":"https://images.pexels.com/photos/25956369/pexels-photo-25956369.jpeg?auto=compress\u0026cs=tinysrgb\u0026h=650\u0026w=940","medium":"https://images.pexels.com/photos/25956369/pexels-photo-25956369.jpeg?auto=compress\u0026cs=tinysrgb\u0026h=350","small":"https://images.pexels.com/photos/25956369/pexels-photo-25956369.jpeg?auto=compress\u0026cs=tinysrgb\u0026h=130","portrait":"https://images.pexels.com/photos/25956369/pexels-photo-25956369.jpeg?auto=compress\u0026cs=tinysrgb\u0026fit=crop\u0026h=1200\u0026w=800","landscape":"https://images.pexels.com/photos/25956369/pexels-photo-25956369.jpeg?auto=compress\u0026cs=tinysrgb\u0026fit=crop\u0026h=627\u0026w=1200","tiny":"https://images.pexels.com/photos/25956369/pexels-photo-25956369.jpeg?auto=compress\u0026cs=tinysrgb\u0026dpr=1\u0026fit=crop\u0026h=200\u0026w=280"},"liked":false,"alt":"Free stock photo of berries, blue berries, blueberries"}],"total_results":8000,"next_page":"https://api.pexels.com/v1/curated/?page=2\u0026per_page=20"}
